build/wave.vcd
$date
  Sun Jan 10 18:42:34 2021
$end
$version
  GHDL v0
$end
$timescale
  1 fs
$end
$scope module standard $end
$upscope $end
$scope module std_logic_1164 $end
$upscope $end
$scope module numeric_std $end
$upscope $end
$scope module textio $end
$upscope $end
$scope module std_logic_textio $end
$upscope $end
$scope module math_real $end
$upscope $end
$scope module rv32i $end
$upscope $end
$scope module core_tb $end
$var reg 1 ! clk $end
$var reg 1 " reset $end
$var reg 32 # inst[31:0] $end
$var reg 32 $ data_in[31:0] $end
$var reg 32 % addr_out[31:0] $end
$var reg 32 & data_out[31:0] $end
$var reg 1 ' load $end
$var reg 1 ( store $end
$var reg 32 ) pc_out[31:0] $end
$var reg 32 * mem_data_link[31:0] $end
$scope module uut $end
$var reg 1 + clk $end
$var reg 1 , reset $end
$var reg 32 - inst[31:0] $end
$var reg 32 . data_in[31:0] $end
$var reg 32 / addr_out[31:0] $end
$var reg 32 0 data_out[31:0] $end
$var reg 1 1 load $end
$var reg 1 2 store $end
$var reg 32 3 pc_out[31:0] $end
$var reg 32 4 simm_val[31:0] $end
$var reg 32 5 sinst[31:0] $end
$var reg 32 6 imm_val[31:0] $end
$var reg 3 7 funct3[2:0] $end
$var reg 7 8 funct7[6:0] $end
$var reg 32 9 pc[31:0] $end
$var reg 32 : pc_plus_4[31:0] $end
$var reg 32 ; s_pc_out[31:0] $end
$var reg 1 < regfile_we $end
$var reg 1 = op $end
$var reg 1 > imm $end
$var reg 1 ? s_load $end
$var reg 1 @ s_store $end
$var reg 1 A jump $end
$var reg 1 B jalr $end
$var reg 1 C branch $end
$var reg 1 D auipc $end
$var reg 1 E lui $end
$var reg 32 F regfile_op1[31:0] $end
$var reg 32 G regfile_op2[31:0] $end
$var reg 32 H mem_in_data[31:0] $end
$var reg 32 I alu_res[31:0] $end
$var reg 1 J branch_success $end
$var reg 32 K wb_res[31:0] $end
$var reg 32 L rd_in[31:0] $end
$scope module decode $end
$var reg 7 M opcode[6:0] $end
$var reg 1 N we $end
$var reg 1 O op $end
$var reg 1 P imm $end
$var reg 1 Q load $end
$var reg 1 R store $end
$var reg 1 S jump $end
$var reg 1 T jalr $end
$var reg 1 U branch $end
$var reg 1 V auipc $end
$var reg 1 W lui $end
$var reg 1 X s_op $end
$var reg 1 Y s_imm $end
$var reg 1 Z s_load $end
$var reg 1 [ s_store $end
$var reg 1 \ s_jump $end
$var reg 1 ] s_jalr $end
$var reg 1 ^ s_branch $end
$var reg 1 _ s_auipc $end
$var reg 1 ` s_lui $end
$upscope $end
$scope module regfile $end
$var reg 1 a rst $end
$var reg 5 b rs1[4:0] $end
$var reg 5 c rs2[4:0] $end
$var reg 5 d rd[4:0] $end
$var reg 32 e res[31:0] $end
$var reg 1 f we $end
$var reg 32 g op1[31:0] $end
$var reg 32 h op2[31:0] $end
$comment x is not handled $end
$upscope $end
$scope module alu $end
$var reg 32 i op1[31:0] $end
$var reg 32 j op2[31:0] $end
$var reg 32 k imm_val[31:0] $end
$var reg 32 l pc[31:0] $end
$var reg 1 m op $end
$var reg 1 n imm $end
$var reg 1 o jump $end
$var reg 1 p jalr $end
$var reg 1 q branch $end
$var reg 1 r auipc $end
$var reg 1 s funct7_bit $end
$var reg 3 t funct3[2:0] $end
$var reg 32 u res[31:0] $end
$var reg 1 v branch_success $end
$var reg 32 w src1[31:0] $end
$var reg 32 x src2[31:0] $end
$var reg 33 y adder_src1[32:0] $end
$var reg 33 z add_res[32:0] $end
$var reg 1 { s_is_lesser $end
$var reg 1 | u_is_lesser $end
$var reg 1 } is_equal $end
$var integer 32 !" shamt $end
$var reg 32 "" shift_left_res[31:0] $end
$var reg 32 #" shift_right_res[31:0] $end
$var reg 32 $" result[31:0] $end
$var reg 1 %" branch_res $end
$var reg 1 &" branch_slt_res $end
$var reg 1 '" slt_res $end
$var reg 1 (" branch_sltu_res $end
$var reg 1 )" sltu_res $end
$upscope $end
$upscope $end
$upscope $end
$enddefinitions $end
#0
0!
1"
b00000000000000000000000000000000 #
bZZZZZZZZZZZZZZZZZZZZZZZZZZZZZZZZ $
bZZZZZZZZZZZZZZZZZZZZZZZZZZZZZZZZ %
bZZZZZZZZZZZZZZZZZZZZZZZZZZZZZZZZ &
0'
0(
b00000000000000000000000000000100 )
bZZZZZZZZZZZZZZZZZZZZZZZZZZZZZZZZ *
0+
1,
b00000000000000000000000000000000 -
bZZZZZZZZZZZZZZZZZZZZZZZZZZZZZZZZ .
bZZZZZZZZZZZZZZZZZZZZZZZZZZZZZZZZ /
bZZZZZZZZZZZZZZZZZZZZZZZZZZZZZZZZ 0
01
02
b00000000000000000000000000000100 3
b-------------------------------- 4
b00000000000000000000000000000000 5
b-------------------------------- 6
b000 7
b0000000 8
b00000000000000000000000000000000 9
b00000000000000000000000000000100 :
b00000000000000000000000000000100 ;
1<
0=
0>
0?
0@
0A
0B
0C
0D
0E
b00000000000000000000000000000000 F
b00000000000000000000000000000000 G
bZZZZZZZZZZZZZZZZZZZZZZZZZZZZZZZZ H
bXXXXXXXXXXXXXXXXXXXXXXXXXXXXXXXX I
0J
b-------------------------------- K
b-------------------------------- L
b0000000 M
1N
0O
0P
0Q
0R
0S
0T
0U
0V
0W
0X
0Y
0Z
0[
0\
0]
0^
0_
0`
1a
b00000 b
b00000 c
b00000 d
b-------------------------------- e
1f
b00000000000000000000000000000000 g
b00000000000000000000000000000000 h
b00000000000000000000000000000000 i
b00000000000000000000000000000000 j
b-------------------------------- k
b00000000000000000000000000000000 l
0m
0n
0o
0p
0q
0r
0s
b000 t
bXXXXXXXXXXXXXXXXXXXXXXXXXXXXXXXX u
0v
b00000000000000000000000000000000 w
b-------------------------------- x
b000000000000000000000000000000000 y
bXXXXXXXXXXXXXXXXXXXXXXXXXXXXXXXXX z
0{
0|
1}
b0 !"
b00000000000000000000000000000000 ""
b00000000000000000000000000000000 #"
bXXXXXXXXXXXXXXXXXXXXXXXXXXXXXXXX $"
1%"
0&"
0'"
0("
0)"
#1000000
1!
0"
b01110111011111100000111000010011 #
1+
0,
b01110111011111100000111000010011 -
b00000000000000000000011101110111 4
b01110111011111100000111000010011 5
b00000000000000000000011101110111 6
b0111011 8
1>
b00000000000000000000011101110111 I
b00000000000000000000011101110111 K
b00000000000000000000011101110111 L
b0010011 M
1P
1Y
0a
b11100 b
b10111 c
b11100 d
b00000000000000000000011101110111 e
b00000000000000000000011101110111 k
1n
1s
b00000000000000000000011101110111 u
b00000000000000000000011101110111 x
b100000000000000000000000000000000 y
b000000000000000000000011101110111 z
1{
1|
b10111 !"
b00000000000000000000011101110111 $"
1'"
1)"
#2000000
0!
0+
#3000000
1!
b00000000000100000000100010010011 #
b00000000000000000000000000001000 )
1+
b00000000000100000000100010010011 -
b00000000000000000000000000001000 3
b00000000000000000000000000000001 4
b00000000000100000000100010010011 5
b00000000000000000000000000000001 6
b0000000 8
b00000000000000000000000000000100 9
b00000000000000000000000000001000 :
b00000000000000000000000000001000 ;
b00000000000000000000000000000001 I
b00000000000000000000000000000001 K
b00000000000000000000000000000001 L
b00000 b
b00001 c
b10001 d
b00000000000000000000000000000001 e
b00000000000000000000000000000001 k
b00000000000000000000000000000100 l
0s
b00000000000000000000000000000001 u
b00000000000000000000000000000001 x
b000000000000000000000000000000000 y
b000000000000000000000000000000001 z
b1 !"
b00000000000000000000000000000001 $"
#4000000
0!
0+
#5000000
1!
b00000001000111100001111000110011 #
b00000000000000000000000000001100 )
1+
b00000001000111100001111000110011 -
b00000000000000000000000000001100 3
b-------------------------------- 4
b00000001000111100001111000110011 5
b-------------------------------- 6
b001 7
b00000000000000000000000000001000 9
b00000000000000000000000000001100 :
b00000000000000000000000000001100 ;
1=
0>
b00000000000000000000000000000000 I
b00000000000000000000000000000000 K
b00000000000000000000000000000000 L
b0110011 M
1O
0P
1X
0Y
b11100 b
b10001 c
b11100 d
b00000000000000000000000000000000 e
b-------------------------------- k
b00000000000000000000000000001000 l
1m
0n
b001 t
b00000000000000000000000000000000 u
b00000000000000000000000000000000 x
b000000000000000000000000000000000 z
0{
0|
b0 !"
b00000000000000000000000000000000 $"
0%"
0'"
0)"
#6000000
0!
0+
#7000000
1!
b00000001000111100000111000110011 #
b00000000000000000000000000010000 )
1+
b00000001000111100000111000110011 -
b00000000000000000000000000010000 3
b00000001000111100000111000110011 5
b000 7
b00000000000000000000000000001100 9
b00000000000000000000000000010000 :
b00000000000000000000000000010000 ;
b00000000000000000000000000001100 l
b000 t
1%"
#8000000
0!
0+
#9000000
1!
b11011110101011011011111000110111 #
b00000000000000000000000000010100 )
1+
b11011110101011011011111000110111 -
b00000000000000000000000000010100 3
b11011110101011011011000000000000 4
b11011110101011011011111000110111 5
b11011110101011011011000000000000 6
b011 7
b1101111 8
b00000000000000000000000000010000 9
b00000000000000000000000000010100 :
b00000000000000000000000000010100 ;
0=
1E
b11011110101011011011000000000000 I
b11011110101011011011000000000000 K
b11011110101011011011000000000000 L
b0110111 M
0O
1W
0X
1`
b11011 b
b01010 c
b11011110101011011011000000000000 e
b11011110101011011011000000000000 k
b00000000000000000000000000010000 l
0m
1s
b011 t
b11011110101011011011000000000000 u
b11011110101011011011000000000000 x
b000000000000000000000000000000000 y
b011011110101011011011000000000000 z
1|
b00000000000000000000000000000001 $"
-%"
1)"
#10000000
0!
0+
#11000000
1!
b10100101010110100000111010010111 #
b00000000000000000000000000011000 )
1+
b10100101010110100000111010010111 -
b00000000000000000000000000011000 3
b10100101010110100000000000000000 4
b10100101010110100000111010010111 5
b10100101010110100000000000000000 6
b000 7
b1010010 8
b00000000000000000000000000010100 9
b00000000000000000000000000011000 :
b00000000000000000000000000011000 ;
1D
0E
b10100101010110100000000000010100 I
b10100101010110100000000000010100 K
b10100101010110100000000000010100 L
b0010111 M
1V
0W
1_
0`
b10100 b
b10101 c
b11101 d
b10100101010110100000000000010100 e
b10100101010110100000000000000000 k
b00000000000000000000000000010100 l
1r
0s
b000 t
b10100101010110100000000000010100 u
b00000000000000000000000000010100 w
b10100101010110100000000000000000 x
b000000000000000000000000000010100 y
b010100101010110100000000000010100 z
b00000000000000000000000000010100 ""
b00000000000000000000000000010100 #"
b10100101010110100000000000010100 $"
1%"
#12000000
0!
0+
#13000000
1!
b00000001110111100011010100110011 #
b00000000000000000000000000011100 )
1+
b00000001110111100011010100110011 -
b00000000000000000000000000011100 3
b-------------------------------- 4
b00000001110111100011010100110011 5
b-------------------------------- 6
b011 7
b0000000 8
b00000000000000000000000000011000 9
b00000000000000000000000000011100 :
b00000000000000000000000000011100 ;
1=
0D
b00000000000000000000000000000000 I
b00000000000000000000000000000000 K
b00000000000000000000000000000000 L
b0110011 M
1O
0V
1X
0_
b11100 b
b11101 c
b01010 d
b00000000000000000000000000000000 e
b-------------------------------- k
b00000000000000000000000000011000 l
1m
0r
b011 t
b00000000000000000000000000000000 u
b00000000000000000000000000000000 w
b00000000000000000000000000000000 x
b000000000000000000000000000000000 y
b000000000000000000000000000000000 z
0|
b00000000000000000000000000000000 ""
b00000000000000000000000000000000 #"
b00000000000000000000000000000000 $"
-%"
0)"
#14000000
0!
0+
#15000000
1!
b00000001110111100010000010110011 #
b00000000000000000000000000100000 )
1+
b00000001110111100010000010110011 -
b00000000000000000000000000100000 3
b00000001110111100010000010110011 5
b010 7
b00000000000000000000000000011100 9
b00000000000000000000000000100000 :
b00000000000000000000000000100000 ;
b00001 d
b00000000000000000000000000011100 l
b010 t
#16000000
0!
0+
#17000000
1!
b00000000101001010001010001100011 #
b00000000000000000000000000100100 )
1+
b00000000101001010001010001100011 -
b00000000000000000000000000100100 3
b00000000000000000000000000001000 4
b00000000101001010001010001100011 5
b00000000000000000000000000001000 6
b001 7
b00000000000000000000000000100000 9
b00000000000000000000000000100100 :
b00000000000000000000000000100100 ;
0<
0=
1C
b00000000000000000000000000101000 I
b-------------------------------- K
b-------------------------------- L
b1100011 M
0N
0O
1U
0X
1^
b01010 b
b01010 c
b01000 d
b-------------------------------- e
0f
b00000000000000000000000000001000 k
b00000000000000000000000000100000 l
0m
1q
b001 t
b00000000000000000000000000101000 u
b00000000000000000000000000100000 w
b00000000000000000000000000001000 x
b000000000000000000000000000100000 y
b000000000000000000000000000101000 z
b1000 !"
b00000000000000000010000000000000 ""
b00000000000000000000000000000000 #"
b00000000000000000010000000000000 $"
0%"
#18000000
0!
0+
#19000000
1!
b00000000000100000000001001100011 #
b00000000000000000000000000101000 )
1+
b00000000000100000000001001100011 -
b00000000000000000000000000101000 3
b00000000000000000000000000000100 4
b00000000000100000000001001100011 5
b00000000000000000000000000000100 6
b000 7
b00000000000000000000000000100100 9
b00000000000000000000000000101000 :
b00000000000000000000000000101000 ;
b00000000000000000000000000101000 I
1J
b00000 b
b00001 c
b00100 d
b00000000000000000000000000000100 k
b00000000000000000000000000100100 l
b000 t
b00000000000000000000000000101000 u
1v
b00000000000000000000000000100100 w
b00000000000000000000000000000100 x
b000000000000000000000000000100100 y
b000000000000000000000000000101000 z
b100 !"
b00000000000000000000001001000000 ""
b00000000000000000000000000000010 #"
b00000000000000000000000000101000 $"
1%"
#20000000
0!
0+
#21000000
1!
b00000000000111101101111010010011 #
b00000000000000000000000000101100 )
1+
b00000000000111101101111010010011 -
b00000000000000000000000000101100 3
b00000000000000000000000000000001 4
b00000000000111101101111010010011 5
b00000000000000000000000000000001 6
b101 7
b00000000000000000000000000101000 9
b00000000000000000000000000101100 :
b00000000000000000000000000101100 ;
1<
1>
0C
b-------------------------------- F
b0000000000000000ZZZZZZZZZZZZZZZZ H
b0------------------------------- I
0J
b0------------------------------- K
b0------------------------------- L
b0010011 M
1N
1P
0U
1Y
0^
b11101 b
b11101 d
b0------------------------------- e
1f
b-------------------------------- g
b-------------------------------- i
b00000000000000000000000000000001 k
b00000000000000000000000000101000 l
1n
0q
b101 t
b0------------------------------- u
0v
b-------------------------------- w
b00000000000000000000000000000001 x
b0-------------------------------- y
bXXXXXXXXXXXXXXXXXXXXXXXXXXXXXXXXX z
0}
b1 !"
b-------------------------------0 ""
b0------------------------------- #"
b0------------------------------- $"
#22000000
0!
0+
#23000000
1!
b00000000000111101001111010010011 #
b00000000000000000000000000110000 )
1+
b00000000000111101001111010010011 -
b00000000000000000000000000110000 3
b00000000000111101001111010010011 5
b001 7
b00000000000000000000000000101100 9
b00000000000000000000000000110000 :
b00000000000000000000000000110000 ;
bZZZZZZZZZZZZZZZZZZZZZZZZZZZZZZZZ H
b-------------------------------0 I
b-------------------------------0 K
b-------------------------------0 L
b-------------------------------0 e
b00000000000000000000000000101100 l
b001 t
b-------------------------------0 u
b-------------------------------0 $"
#24000000
0!
0+
#25000000
1!
b01000000000111101101111010010011 #
b00000000000000000000000000110100 )
1+
b01000000000111101101111010010011 -
b00000000000000000000000000110100 3
b00000000000000000000010000000001 4
b01000000000111101101111010010011 5
b00000000000000000000010000000001 6
b101 7
b0100000 8
b00000000000000000000000000110000 9
b00000000000000000000000000110100 :
b00000000000000000000000000110100 ;
b0000000000000000ZZZZZZZZZZZZZZZZ H
b-------------------------------- I
b-------------------------------- K
b-------------------------------- L
b-------------------------------- e
b00000000000000000000010000000001 k
b00000000000000000000000000110000 l
1s
b101 t
b-------------------------------- u
b00000000000000000000010000000001 x
bXXXXXXXXXXXXXXXXXXXXXXXXXXXXXXXXX y
b-------------------------------- #"
b-------------------------------- $"
#26000000
0!
0+
#27000000
1!
b00000000110000000000000101101111 #
b00000000000000000000000001000000 )
1+
b00000000110000000000000101101111 -
b00000000000000000000000001000000 3
b00000000000000000000000000001100 4
b00000000110000000000000101101111 5
b00000000000000000000000000001100 6
b000 7
b0000000 8
b00000000000000000000000000110100 9
b00000000000000000000000000111000 :
b00000000000000000000000001000000 ;
0>
1A
b00000000000000000000000000000000 F
bZZZZZZZZZZZZZZZZZZZZZZZZZZZZZZZZ H
b00000000000000000000000001000000 I
b00000000000000000000000000111000 K
b00000000000000000000000000111000 L
b1101111 M
0P
1S
0Y
1\
b00000 b
b01100 c
b00010 d
b00000000000000000000000000111000 e
b00000000000000000000000000000000 g
b00000000000000000000000000000000 i
b00000000000000000000000000001100 k
b00000000000000000000000000110100 l
0n
1o
0s
b000 t
b00000000000000000000000001000000 u
b00000000000000000000000000110100 w
b00000000000000000000000000001100 x
b000000000000000000000000000110100 y
b000000000000000000000000001000000 z
0{
0|
1}
b1100 !"
b00000000000000110100000000000000 ""
b00000000000000000000000000000000 #"
b00000000000000000000000001000000 $"
1%"
0'"
0)"
#28000000
0!
0+
#29000000
1!
b00000000001111111010010000100011 #
b00000000000000000000000000000000 &
1(
b00000000000000000000000001000100 )
b00000000000000000000000000001000 *
1+
b00000000001111111010010000100011 -
b00000000000000000000000000001000 .
b00000000000000000000000000001000 /
b00000000000000000000000000000000 0
12
b00000000000000000000000001000100 3
b00000000000000000000000000001000 4
b00000000001111111010010000100011 5
b00000000000000000000000000001000 6
b010 7
b00000000000000000000000001000000 9
b00000000000000000000000001000100 :
b00000000000000000000000001000100 ;
0<
1@
0A
b00000000000000000000000000001000 H
b00000000000000000000000000001000 I
b-------------------------------- K
b-------------------------------- L
b0100011 M
0N
1R
0S
1[
0\
b11111 b
b00011 c
b01000 d
b-------------------------------- e
0f
b00000000000000000000000000001000 k
b00000000000000000000000001000000 l
0o
b010 t
b00000000000000000000000000001000 u
b00000000000000000000000000000000 w
b00000000000000000000000000001000 x
b000000000000000000000000000000000 y
b000000000000000000000000000001000 z
1{
1|
b1000 !"
b00000000000000000000000000000000 ""
b00000000000000000000000000000001 $"
-%"
1'"
1)"
#30000000
0!
0+
#31000000
1!
b00000000100011111010010010000011 #
bZZZZZZZZZZZZZZZZZZZZZZZZZZZZZZZZ &
1'
0(
b00000000000000000000000001001000 )
b00000000000000000000000000001000 *
1+
b00000000100011111010010010000011 -
b00000000000000000000000000001000 .
b00000000000000000000000000001000 /
bZZZZZZZZZZZZZZZZZZZZZZZZZZZZZZZZ 0
11
02
b00000000000000000000000001001000 3
b00000000000000000000000000001000 4
b00000000100011111010010010000011 5
b00000000000000000000000000001000 6
b00000000000000000000000001000100 9
b00000000000000000000000001001000 :
b00000000000000000000000001001000 ;
1<
1?
0@
b-------------------------------- G
b00000000000000000000000000001000 H
b00000000000000000000000000001000 I
b00000000000000000000000000001000 L
b0000011 M
1N
1Q
0R
1Z
0[
b01000 c
b01001 d
b00000000000000000000000000001000 e
1f
b-------------------------------- h
b-------------------------------- j
b00000000000000000000000000001000 k
b00000000000000000000000001000100 l
b00000000000000000000000000001000 u
b00000000000000000000000000001000 x
b000000000000000000000000000001000 z
0}
b1000 !"
#32000000
0!
0+
#33000000
1!
b01000001110011101000111110110011 #
0'
b00000000000000000000000001001100 )
bZZZZZZZZZZZZZZZZZZZZZZZZZZZZZZZZ *
1+
b01000001110011101000111110110011 -
bZZZZZZZZZZZZZZZZZZZZZZZZZZZZZZZZ .
bZZZZZZZZZZZZZZZZZZZZZZZZZZZZZZZZ /
01
b00000000000000000000000001001100 3
b-------------------------------- 4
b01000001110011101000111110110011 5
b-------------------------------- 6
b000 7
b0100000 8
b00000000000000000000000001001000 9
b00000000000000000000000001001100 :
b00000000000000000000000001001100 ;
1=
0?
b-------------------------------- F
b00000000000000000000000000000000 G
bZZZZZZZZZZZZZZZZZZZZZZZZZZZZZZZZ H
bXXXXXXXXXXXXXXXXXXXXXXXXXXXXXXXX I
bXXXXXXXXXXXXXXXXXXXXXXXXXXXXXXXX K
bXXXXXXXXXXXXXXXXXXXXXXXXXXXXXXXX L
b0110011 M
1O
0Q
1X
0Z
b11101 b
b11100 c
b11111 d
bXXXXXXXXXXXXXXXXXXXXXXXXXXXXXXXX e
b-------------------------------- g
b00000000000000000000000000000000 h
b-------------------------------- i
b00000000000000000000000000000000 j
b-------------------------------- k
b00000000000000000000000001001000 l
1m
1s
b000 t
bXXXXXXXXXXXXXXXXXXXXXXXXXXXXXXXX u
b-------------------------------- w
b00000000000000000000000000000000 x
bXXXXXXXXXXXXXXXXXXXXXXXXXXXXXXXXX y
bXXXXXXXXXXXXXXXXXXXXXXXXXXXXXXXXX z
0{
0|
b0 !"
b-------------------------------- ""
b-------------------------------- #"
bXXXXXXXXXXXXXXXXXXXXXXXXXXXXXXXX $"
0%"
0'"
0)"
#34000000
0!
0+
#35000000
1!
b00000001110011101100000110110011 #
b00000000000000000000000001010000 )
1+
b00000001110011101100000110110011 -
b00000000000000000000000001010000 3
b00000001110011101100000110110011 5
b100 7
b0000000 8
b00000000000000000000000001001100 9
b00000000000000000000000001010000 :
b00000000000000000000000001010000 ;
b000000000000000000000000ZZZZZZZZ H
b00011 d
b00000000000000000000000001001100 l
0s
b100 t
b0-------------------------------- y
#36000000
0!
0+
#37000000
1!
b00000000000000010000000011100111 #
b00000000000000000000000001010000 )
1+
b00000000000000010000000011100111 -
b00000000000000000000000001010000 3
b00000000000000000000000000000000 4
b00000000000000010000000011100111 5
b00000000000000000000000000000000 6
b000 7
b00000000000000000000000001010000 9
b00000000000000000000000001010100 :
b00000000000000000000000001010000 ;
0=
1B
b00000000000000000000000000000000 F
bZZZZZZZZZZZZZZZZZZZZZZZZZZZZZZZZ H
b00000000000000000000000001010000 I
b00000000000000000000000001010100 K
b00000000000000000000000001010100 L
b1100111 M
0O
1T
0X
1]
b00010 b
b00000 c
b00001 d
b00000000000000000000000001010100 e
b00000000000000000000000000000000 g
b00000000000000000000000000000000 i
b00000000000000000000000000000000 k
b00000000000000000000000001010000 l
0m
1p
b000 t
b00000000000000000000000001010000 u
b00000000000000000000000001010000 w
b00000000000000000000000000000000 x
b000000000000000000000000001010000 y
b000000000000000000000000001010000 z
1}
b00000000000000000000000001010000 ""
b00000000000000000000000001010000 #"
b00000000000000000000000001010000 $"
1%"
